{
	"title" : "explique les chemins et les champs des données de datacite à récupérer",
	"version" : "2023-11-20",
	"comentaires" : {
		"0" : "non prise en compte de l'attribut dates",
		"1" : "non prise en compte de l'attribut relatedIdentifiers"
	},
	"path-and-fields" : {

		"attributes" : {
			"titles" : {
				"type" : "list of dict",
				"past_first_occ" : "title"
			},
			"publisher" : "string",
			"publicationYear" : "int",
			"subjects" : {
				"past_values_w_this_key" : "subject",
				"flatten_all_in_this_key" : "subject_raw"
			},
			"language" : "string",
			"types" : {
				"type" : "dict",
				"past_values_w_this_key" : "resourceTypeGeneral"
			},
			"sizes" : "string",
			"formats" : "string",
			"rightsList" : {
				"type" : "list of dict",
				"past_values_w_this_key" :"rights"
			},
			"descriptions" : {
				"type" : "list of dict",
				"past_first_occ" : "description"
			},
			"geoLocations" : {
				"flatten_all_in_this_key" : "geoLocations_raw"
			},
			"FundingReferences" : {
				"flatten_all_in_this_key" : "FundingReferences_raw"
			},
			"source" : "string",
			"isActive" : "string",
			"state" : "string",
			"viewCount" : "int",
			"downloadCount" : "int",
			"referenceCount" : "int",
			"citationCount" : "int",
			"versionCount" : "int",
			"created" : "string",
			"registered" : "string"
		},
		"relationships" : {
			"client" : {
				"go_to_sub_key" : "data",
				"get_key" : "id"

			},
			"provider" : {
				"go_to_sub_key" : "data",
				"get_key" : "id"
			}

		}
	}
}
