10.34847/nkl.a0fe865m
10.34847/nkl.76abr599
10.34847/nkl.6caam3dp
10.34847/nkl.5bcck3cz
10.34847/nkl.ca709965
10.34847/nkl.ca8dmbdh
10.34847/nkl.a5ae8y33
10.34847/nkl.748eqz51
10.34847/nkl.2c0fj3ai
10.34847/nkl.2bad8uj6
10.34847/nkl.2404plkh
10.34847/nkl.87788ro3
10.34847/nkl.bafagy29
10.34847/nkl.9bd4vqc6
10.34847/nkl.4540o25d
10.34847/nkl.36ac9k92
10.34847/nkl.231c4067
10.34847/nkl.a0db89n9
10.34847/nkl.5bb02187
10.34847/nkl.adc04b9w
10.34847/nkl.aacad5y8
10.34847/nkl.3dbc2mtb
10.34847/nkl.bc2b1071
10.34847/nkl.81dcdekj
10.34847/nkl.ef903o6v
10.34847/nkl.ae94a74k
10.34847/nkl.bf5f263z
10.34847/nkl.9f85iol5
10.34847/nkl.345bf9i7
10.34847/nkl.9cd8hi4k
10.34847/nkl.e1e41vdi
10.34847/nkl.deb655as
