ror,name,type,docid,hal_child_nb,ror_relation_nb
https://ror.org/05588ks88,LInguistique et DIdactique des Langues Étrangères et Maternelles,laboratory,1043147,0.0,
https://ror.org/01yxtfe92,École nationale supérieure d'architecture de Grenoble,institution,1043352,1.0,
https://ror.org/05hz99a17,"Ambiances, Architectures, Urbanités",laboratory,1088635,0.0,
https://ror.org/0509qp208,Centre d'études et de recherches appliquées à la gestion,laboratory,1043181,0.0,
https://ror.org/05sbt2524,Institut polytechnique de Grenoble - Grenoble Institute of Technology,institution,1043329,15.0,
https://ror.org/02z8yps18,"Laboratoire de Génie des Procédés pour la Bioraffinerie, les Matériaux Bio-sourcés et l'Impression Fonctionnelle",laboratory,1162332,0.0,
https://ror.org/04eg25g76,Laboratoire de Conception et d'Intégration des Systèmes,laboratory,1043068,0.0,
https://ror.org/02wrme198,Grenoble Images Parole Signal Automatique,laboratory,1043333,0.0,
https://ror.org/043pfpy19,Laboratoire des Écoulements Géophysiques et Industriels [Grenoble],laboratory,1043048,0.0,
https://ror.org/03985kf35,Translational Innovation in Medicine and Complexity / Recherche Translationnelle et Innovation en Médecine et Complexité - UMR 5525,laboratory,1043049,0.0,
https://ror.org/03bcdsr62,"Laboratoire sols, solides, structures - risques [Grenoble]",laboratory,1043064,0.0,
https://ror.org/04dbzz632,Institut Néel,laboratory,1043183,0.0,
https://ror.org/05hyx5a17,Laboratoire de Génie Electrique de Grenoble,laboratory,1043220,0.0,
https://ror.org/01c8rcg82,Laboratoire d'Informatique de Grenoble,laboratory,1043301,0.0,
https://ror.org/05afmzm11,VERIMAG,laboratory,1043148,0.0,
https://ror.org/04ett5b41,Laboratoire Jean Kuntzmann,laboratory,1043077,0.0,
https://ror.org/03taa9n66,"Institut de Microélectronique, Electromagnétisme et Photonique - Laboratoire d'Hyperfréquences et Caractérisation",laboratory,1043224,0.0,
https://ror.org/03f0apy98,Laboratoire de Physique Subatomique et de Cosmologie,laboratory,1043144,0.0,
https://ror.org/00fwjkb59,Laboratoire d'Economie Appliquée de Grenoble,laboratory,1043256,0.0,
https://ror.org/04axb9j69,Laboratoire d'Electrochimie et de Physico-chimie des Matériaux et des Interfaces,laboratory,1043074,0.0,
https://ror.org/04as3rk94,[GIN] Grenoble Institut des Neurosciences,regrouplaboratory,408885,0.0,
https://ror.org/036zswm25,Laboratoire des technologies de la microélectronique,laboratory,1043042,0.0,
https://ror.org/05rwrfh97,Institut Fourier,laboratory,1043234,0.0,
https://ror.org/026j45x50,"Pacte, Laboratoire de sciences sociales",laboratory,1043180,0.0,
https://ror.org/023n9q531,Laboratoire Interdisciplinaire de Physique [Saint Martin d’Hères],laboratory,1043294,0.0,
https://ror.org/04szabx38,Institut de biologie structurale,department,1043235,0.0,
https://ror.org/02mc6qk71,Laboratoire de physique et modélisation des milieux condensés,laboratory,1043152,0.0,
https://ror.org/02dpnb389,Clinatec - Centre de recherche biomédicale Edmond J.Safra,department,416269,0.0,
https://ror.org/03x1z2w73,Laboratoire d'Ecologie Alpine,laboratory,1043062,0.0,
https://ror.org/045ktmd28,Laboratoire national des champs magnétiques intenses - Grenoble,laboratory,1043255,0.0,
https://ror.org/04qz4qy85,LAboratoire de Recherche Historique Rhône-Alpes - UMR5190,laboratory,1043116,0.0,
https://ror.org/041rhpw39,Centre Hospitalier Universitaire de Grenoble,healthcare,,,4.0
https://ror.org/000tdrn36,Centre Interuniversitaire de MicroElectronique et Nanotechnologies,facility,,,2.0
https://ror.org/02wmc6m46,Institut d'Histoire des Représentations et des Idées dans les Modernités,facility,,,6.0
https://ror.org/01cf2sz15,Institut des Sciences de la Terre,facility,,,5.0
https://ror.org/01wwcfa26,Institute of Environmental Geosciences,facility,,,5.0
https://ror.org/03eqm6y13,LabEx PERSYVAL-Lab,facility,,,5.0
https://ror.org/0157h5t87,"Langages, Littératures, Sociétés. Études Transfrontalières et Internationales",facility,,,2.0
https://ror.org/02f7wz369,Pierre Mendès-France University,education,,,7.0
https://ror.org/03yppfm65,Stendhal University,education,,,5.0
https://ror.org/02rmwrd87,"Laboratoire Environnements, Dynamiques et Territoires de Montagne",facility,,,4.0
https://ror.org/047p7mf25,Institut Carnot PolyNat,facility,,,2.0
https://ror.org/03vte9x46,Observatoire des Sciences de l'Univers de Grenoble,education,,,5.0
https://ror.org/05c99vk74,Laboratoire de Recherche sur les Apprentissages en Contexte,facility,,,2.0
https://ror.org/04fhvpc68,Département de Pharmacochimie Moléculaire,facility,,,2.0
https://ror.org/03jrb0276,"Laboratoire Inter-universitaire de Psychologie: Personnalité, Cognition, Changement Social",facility,,,2.0
https://ror.org/01kbr1737,PHotonique ELectronique et Ingénierie QuantiqueS,facility,,,2.0
https://ror.org/00ndvqf03,Laboratoire Modélisation et Exploration des Matériaux,facility,,,2.0
https://ror.org/0467x8h16,Maison des Sciences de l'Homme-Alpes,facility,,,2.0
https://ror.org/02cmt9z73,Agence pour les Mathématiques en Interaction avec l'Entreprise et la Société,facility,,,2.0
https://ror.org/026m44z54,Laboratoire Nanotechnologies et Nanosystèmes,facility,,,6.0
https://ror.org/03949e763,Integrated Structural Biology Grenoble,facility,,,3.0
https://ror.org/04ndt7n58,"Centre d'Etudes et de Recherche sur la diplomatie, l’Administration Publique et le Politique",facility,,,2.0
https://ror.org/044cfnj78,GRIDCAD - Grenoble Alpes Recherche-Infrastructure de Calcul intensif et de Données,facility,,,4.0
https://ror.org/03e044190,Spintronique et Technologie des Composants,facility,,,4.0
https://ror.org/05hb8m595,PHOTOSYNTHESE,other,,,12.0
https://ror.org/01w1erp60,Couplage Multi-physiques et Multi-échelles en mécanique géo-environnemental,other,,,19.0
https://ror.org/05be9p317,Micropesanteur Fondamentale et Appliquée,other,,,14.0
https://ror.org/01x6z5t49,Fédération de Recherche Spectroscopies de Photoémission,other,,,42.0
https://ror.org/01nrtdp55,GDR NBODY : Problème quantique à N corps en chimie et physique,facility,,,38.0
https://ror.org/00hgbrg14,"Fédération française Matériaux sous hautes vitesses de déformation. Application aux matériaux en conditions extrêmes, Procédés et structures",other,,,16.0
https://ror.org/0459fdx51,Fédération de Recherche sur l'Energie Solaire,other,,,45.0
https://ror.org/04yem5s35,INFRANALYTICS,other,,,16.0
https://ror.org/01sgwka45,Microscopie Fonctionnelle du Vivant,facility,,,31.0
